// Jest Snapshot v1, https://goo.gl/fbAQLP

exports[`channel subscribers component should render correctly 1`] = `
<View
  style={
    Object {
      "flex": 1,
    }
  }
>
  <View
    style={
      Object {
        "flexDirection": "row",
        "height": 35,
        "justifyContent": "center",
      }
    }
  >
    <View
      style={
        Array [
          Object {
            "flex": 1,
          },
          Object {
            "flexDirection": "row",
            "justifyContent": "center",
          },
        ]
      }
    >
      <View
        accessible={true}
        isTVSelectable={true}
        onResponderGrant={[Function]}
        onResponderMove={[Function]}
        onResponderRelease={[Function]}
        onResponderTerminate={[Function]}
        onResponderTerminationRequest={[Function]}
        onStartShouldSetResponder={[Function]}
        style={
          Array [
            Object {
              "alignItems": "center",
              "borderBottomWidth": 3,
              "borderColor": "#4690D6",
            },
            Object {
              "flex": 1,
              "justifyContent": "center",
            },
          ]
        }
      >
        <Text
          style={null}
        >
          Subscribers
        </Text>
      </View>
      <View
        accessible={true}
        isTVSelectable={true}
        onResponderGrant={[Function]}
        onResponderMove={[Function]}
        onResponderRelease={[Function]}
        onResponderTerminate={[Function]}
        onResponderTerminationRequest={[Function]}
        onStartShouldSetResponder={[Function]}
        style={
          Array [
            Object {
              "alignItems": "center",
            },
            Object {
              "flex": 1,
              "justifyContent": "center",
            },
          ]
        }
      >
        <Text
          style={null}
        >
          Subscriptions
        </Text>
      </View>
    </View>
  </View>
  <RCTScrollView
    data={
      Array [
        Object {
          "access_id": "2",
          "banned": "no",
          "boostProPlus": false,
          "boost_autorotate": true,
          "boost_rating": "2",
          "briefdescription": "",
          "categories": Array [
            "music",
            "nature",
            "news",
            "politics",
            "science",
            "technology",
            "education",
            "art",
            "health",
          ],
          "chat": true,
          "city": "",
          "container_guid": "0",
          "deleted": "0",
          "disabled_boost": false,
          "dob": "",
          "eth_wallet": "0x6fffffdadae350ddd5a1777d5a1777a4f39f0317",
          "fb": false,
          "feature_flags": false,
          "featured_id": "725165605782560768",
          "founder": false,
          "gender": "private",
          "getAvatarSource": [MockFunction],
          "guid": "1",
          "icontime": "1523515420",
          "language": "en",
          "legacy_guid": false,
          "mature": "1",
          "mature_channel": "0",
          "merchant": Object {
            "exclusive": Object {
              "amount": "10",
              "enabled": true,
            },
            "id": "acct_Dsdfjdlsaf34243",
            "service": "stripe",
          },
          "monetized": "",
          "name": "Some User",
          "owner_guid": "0",
          "pinned_posts": Array [],
          "plus": true,
          "programs": Array [
            "affiliate",
          ],
          "rating": "1",
          "rewards": true,
          "signup_method": false,
          "site_guid": false,
          "social_profiles": Array [],
          "spam": "0",
          "subscribed": false,
          "subscriber": true,
          "subtype": false,
          "time_created": "1468113204",
          "time_updated": false,
          "type": "user",
          "username": "someusermane",
          "verified": true,
          "website": "",
          "wire_rewards": Object {
            "description": "",
            "rewards": Object {
              "money": Array [],
              "points": Array [],
            },
          },
        },
        Object {
          "access_id": "2",
          "banned": "no",
          "boostProPlus": false,
          "boost_autorotate": true,
          "boost_rating": "2",
          "briefdescription": "",
          "categories": Array [
            "music",
            "nature",
            "news",
            "politics",
            "science",
            "technology",
            "education",
            "art",
            "health",
          ],
          "chat": true,
          "city": "",
          "container_guid": "0",
          "deleted": "0",
          "disabled_boost": false,
          "dob": "",
          "eth_wallet": "0x6fffffdadae350ddd5a1777d5a1777a4f39f0317",
          "fb": false,
          "feature_flags": false,
          "featured_id": "725165605782560768",
          "founder": false,
          "gender": "private",
          "getAvatarSource": [MockFunction],
          "guid": "2",
          "icontime": "1523515420",
          "language": "en",
          "legacy_guid": false,
          "mature": "1",
          "mature_channel": "0",
          "merchant": Object {
            "exclusive": Object {
              "amount": "10",
              "enabled": true,
            },
            "id": "acct_Dsdfjdlsaf34243",
            "service": "stripe",
          },
          "monetized": "",
          "name": "Some User",
          "owner_guid": "0",
          "pinned_posts": Array [],
          "plus": true,
          "programs": Array [
            "affiliate",
          ],
          "rating": "1",
          "rewards": true,
          "signup_method": false,
          "site_guid": false,
          "social_profiles": Array [],
          "spam": "0",
          "subscribed": false,
          "subscriber": true,
          "subtype": false,
          "time_created": "1468113204",
          "time_updated": false,
          "type": "user",
          "username": "someusermane",
          "verified": true,
          "website": "",
          "wire_rewards": Object {
            "description": "",
            "rewards": Object {
              "money": Array [],
              "points": Array [],
            },
          },
        },
        Object {
          "access_id": "2",
          "banned": "no",
          "boostProPlus": false,
          "boost_autorotate": true,
          "boost_rating": "2",
          "briefdescription": "",
          "categories": Array [
            "music",
            "nature",
            "news",
            "politics",
            "science",
            "technology",
            "education",
            "art",
            "health",
          ],
          "chat": true,
          "city": "",
          "container_guid": "0",
          "deleted": "0",
          "disabled_boost": false,
          "dob": "",
          "eth_wallet": "0x6fffffdadae350ddd5a1777d5a1777a4f39f0317",
          "fb": false,
          "feature_flags": false,
          "featured_id": "725165605782560768",
          "founder": false,
          "gender": "private",
          "getAvatarSource": [MockFunction],
          "guid": "3",
          "icontime": "1523515420",
          "language": "en",
          "legacy_guid": false,
          "mature": "1",
          "mature_channel": "0",
          "merchant": Object {
            "exclusive": Object {
              "amount": "10",
              "enabled": true,
            },
            "id": "acct_Dsdfjdlsaf34243",
            "service": "stripe",
          },
          "monetized": "",
          "name": "Some User",
          "owner_guid": "0",
          "pinned_posts": Array [],
          "plus": true,
          "programs": Array [
            "affiliate",
          ],
          "rating": "1",
          "rewards": true,
          "signup_method": false,
          "site_guid": false,
          "social_profiles": Array [],
          "spam": "0",
          "subscribed": false,
          "subscriber": true,
          "subtype": false,
          "time_created": "1468113204",
          "time_updated": false,
          "type": "user",
          "username": "someusermane",
          "verified": true,
          "website": "",
          "wire_rewards": Object {
            "description": "",
            "rewards": Object {
              "money": Array [],
              "points": Array [],
            },
          },
        },
      ]
    }
    disableVirtualization={false}
    getItem={[Function]}
    getItemCount={[Function]}
    horizontal={false}
    initialNumToRender={12}
    keyExtractor={[Function]}
    maxToRenderPerBatch={10}
    numColumns={1}
    onContentSizeChange={[Function]}
    onEndReached={[Function]}
    onEndReachedThreshold={2}
    onLayout={[Function]}
    onMomentumScrollEnd={[Function]}
    onRefresh={[Function]}
    onScroll={[Function]}
    onScrollBeginDrag={[Function]}
    onScrollEndDrag={[Function]}
    refreshControl={
      <RefreshControlMock
        onRefresh={[Function]}
        refreshing={false}
      />
    }
    refreshing={false}
    removeClippedSubviews={false}
    renderItem={[Function]}
    scrollEventThrottle={50}
    stickyHeaderIndices={Array []}
    style={
      Object {
        "backgroundColor": "#FFF",
        "flex": 1,
      }
    }
    updateCellsBatchingPeriod={50}
    viewabilityConfigCallbackPairs={Array []}
    windowSize={21}
  >
    <RCTRefreshControl />
    <View>
      <View
        onLayout={[Function]}
        style={null}
      >
        <DiscoveryUser
          entity={
            Object {
              "index": 0,
              "item": Object {
                "access_id": "2",
                "banned": "no",
                "boostProPlus": false,
                "boost_autorotate": true,
                "boost_rating": "2",
                "briefdescription": "",
                "categories": Array [
                  "music",
                  "nature",
                  "news",
                  "politics",
                  "science",
                  "technology",
                  "education",
                  "art",
                  "health",
                ],
                "chat": true,
                "city": "",
                "container_guid": "0",
                "deleted": "0",
                "disabled_boost": false,
                "dob": "",
                "eth_wallet": "0x6fffffdadae350ddd5a1777d5a1777a4f39f0317",
                "fb": false,
                "feature_flags": false,
                "featured_id": "725165605782560768",
                "founder": false,
                "gender": "private",
                "getAvatarSource": [MockFunction],
                "guid": "1",
                "icontime": "1523515420",
                "language": "en",
                "legacy_guid": false,
                "mature": "1",
                "mature_channel": "0",
                "merchant": Object {
                  "exclusive": Object {
                    "amount": "10",
                    "enabled": true,
                  },
                  "id": "acct_Dsdfjdlsaf34243",
                  "service": "stripe",
                },
                "monetized": "",
                "name": "Some User",
                "owner_guid": "0",
                "pinned_posts": Array [],
                "plus": true,
                "programs": Array [
                  "affiliate",
                ],
                "rating": "1",
                "rewards": true,
                "signup_method": false,
                "site_guid": false,
                "social_profiles": Array [],
                "spam": "0",
                "subscribed": false,
                "subscriber": true,
                "subtype": false,
                "time_created": "1468113204",
                "time_updated": false,
                "type": "user",
                "username": "someusermane",
                "verified": true,
                "website": "",
                "wire_rewards": Object {
                  "description": "",
                  "rewards": Object {
                    "money": Array [],
                    "points": Array [],
                  },
                },
              },
              "separators": Object {
                "highlight": [Function],
                "unhighlight": [Function],
                "updateProps": [Function],
              },
            }
          }
          navigation={
            Object {
              "navigate": [MockFunction],
              "state": Object {
                "params": Object {
                  "guid": 1,
                },
              },
            }
          }
          store={
            Object {
              "filter": "subscribers",
              "list": OffsetListStore {
                "entities": Array [
                  Object {
                    "access_id": "2",
                    "banned": "no",
                    "boostProPlus": false,
                    "boost_autorotate": true,
                    "boost_rating": "2",
                    "briefdescription": "",
                    "categories": Array [
                      "music",
                      "nature",
                      "news",
                      "politics",
                      "science",
                      "technology",
                      "education",
                      "art",
                      "health",
                    ],
                    "chat": true,
                    "city": "",
                    "container_guid": "0",
                    "deleted": "0",
                    "disabled_boost": false,
                    "dob": "",
                    "eth_wallet": "0x6fffffdadae350ddd5a1777d5a1777a4f39f0317",
                    "fb": false,
                    "feature_flags": false,
                    "featured_id": "725165605782560768",
                    "founder": false,
                    "gender": "private",
                    "getAvatarSource": [MockFunction],
                    "guid": "1",
                    "icontime": "1523515420",
                    "language": "en",
                    "legacy_guid": false,
                    "mature": "1",
                    "mature_channel": "0",
                    "merchant": Object {
                      "exclusive": Object {
                        "amount": "10",
                        "enabled": true,
                      },
                      "id": "acct_Dsdfjdlsaf34243",
                      "service": "stripe",
                    },
                    "monetized": "",
                    "name": "Some User",
                    "owner_guid": "0",
                    "pinned_posts": Array [],
                    "plus": true,
                    "programs": Array [
                      "affiliate",
                    ],
                    "rating": "1",
                    "rewards": true,
                    "signup_method": false,
                    "site_guid": false,
                    "social_profiles": Array [],
                    "spam": "0",
                    "subscribed": false,
                    "subscriber": true,
                    "subtype": false,
                    "time_created": "1468113204",
                    "time_updated": false,
                    "type": "user",
                    "username": "someusermane",
                    "verified": true,
                    "website": "",
                    "wire_rewards": Object {
                      "description": "",
                      "rewards": Object {
                        "money": Array [],
                        "points": Array [],
                      },
                    },
                  },
                  Object {
                    "access_id": "2",
                    "banned": "no",
                    "boostProPlus": false,
                    "boost_autorotate": true,
                    "boost_rating": "2",
                    "briefdescription": "",
                    "categories": Array [
                      "music",
                      "nature",
                      "news",
                      "politics",
                      "science",
                      "technology",
                      "education",
                      "art",
                      "health",
                    ],
                    "chat": true,
                    "city": "",
                    "container_guid": "0",
                    "deleted": "0",
                    "disabled_boost": false,
                    "dob": "",
                    "eth_wallet": "0x6fffffdadae350ddd5a1777d5a1777a4f39f0317",
                    "fb": false,
                    "feature_flags": false,
                    "featured_id": "725165605782560768",
                    "founder": false,
                    "gender": "private",
                    "getAvatarSource": [MockFunction],
                    "guid": "2",
                    "icontime": "1523515420",
                    "language": "en",
                    "legacy_guid": false,
                    "mature": "1",
                    "mature_channel": "0",
                    "merchant": Object {
                      "exclusive": Object {
                        "amount": "10",
                        "enabled": true,
                      },
                      "id": "acct_Dsdfjdlsaf34243",
                      "service": "stripe",
                    },
                    "monetized": "",
                    "name": "Some User",
                    "owner_guid": "0",
                    "pinned_posts": Array [],
                    "plus": true,
                    "programs": Array [
                      "affiliate",
                    ],
                    "rating": "1",
                    "rewards": true,
                    "signup_method": false,
                    "site_guid": false,
                    "social_profiles": Array [],
                    "spam": "0",
                    "subscribed": false,
                    "subscriber": true,
                    "subtype": false,
                    "time_created": "1468113204",
                    "time_updated": false,
                    "type": "user",
                    "username": "someusermane",
                    "verified": true,
                    "website": "",
                    "wire_rewards": Object {
                      "description": "",
                      "rewards": Object {
                        "money": Array [],
                        "points": Array [],
                      },
                    },
                  },
                  Object {
                    "access_id": "2",
                    "banned": "no",
                    "boostProPlus": false,
                    "boost_autorotate": true,
                    "boost_rating": "2",
                    "briefdescription": "",
                    "categories": Array [
                      "music",
                      "nature",
                      "news",
                      "politics",
                      "science",
                      "technology",
                      "education",
                      "art",
                      "health",
                    ],
                    "chat": true,
                    "city": "",
                    "container_guid": "0",
                    "deleted": "0",
                    "disabled_boost": false,
                    "dob": "",
                    "eth_wallet": "0x6fffffdadae350ddd5a1777d5a1777a4f39f0317",
                    "fb": false,
                    "feature_flags": false,
                    "featured_id": "725165605782560768",
                    "founder": false,
                    "gender": "private",
                    "getAvatarSource": [MockFunction],
                    "guid": "3",
                    "icontime": "1523515420",
                    "language": "en",
                    "legacy_guid": false,
                    "mature": "1",
                    "mature_channel": "0",
                    "merchant": Object {
                      "exclusive": Object {
                        "amount": "10",
                        "enabled": true,
                      },
                      "id": "acct_Dsdfjdlsaf34243",
                      "service": "stripe",
                    },
                    "monetized": "",
                    "name": "Some User",
                    "owner_guid": "0",
                    "pinned_posts": Array [],
                    "plus": true,
                    "programs": Array [
                      "affiliate",
                    ],
                    "rating": "1",
                    "rewards": true,
                    "signup_method": false,
                    "site_guid": false,
                    "social_profiles": Array [],
                    "spam": "0",
                    "subscribed": false,
                    "subscriber": true,
                    "subtype": false,
                    "time_created": "1468113204",
                    "time_updated": false,
                    "type": "user",
                    "username": "someusermane",
                    "verified": true,
                    "website": "",
                    "wire_rewards": Object {
                      "description": "",
                      "rewards": Object {
                        "money": Array [],
                        "points": Array [],
                      },
                    },
                  },
                ],
                "errorLoading": false,
                "loaded": true,
                "metadataService": null,
                "offset": "",
                "refreshing": false,
              },
              "loadList": [MockFunction],
              "refresh": [MockFunction],
              "reset": [MockFunction],
              "setFilter": [MockFunction],
              "setGuid": [MockFunction] {
                "calls": Array [
                  Array [
                    1,
                  ],
                ],
                "results": Array [
                  Object {
                    "type": "return",
                    "value": undefined,
                  },
                ],
              },
            }
          }
        />
      </View>
      <View
        onLayout={[Function]}
        style={null}
      >
        <DiscoveryUser
          entity={
            Object {
              "index": 1,
              "item": Object {
                "access_id": "2",
                "banned": "no",
                "boostProPlus": false,
                "boost_autorotate": true,
                "boost_rating": "2",
                "briefdescription": "",
                "categories": Array [
                  "music",
                  "nature",
                  "news",
                  "politics",
                  "science",
                  "technology",
                  "education",
                  "art",
                  "health",
                ],
                "chat": true,
                "city": "",
                "container_guid": "0",
                "deleted": "0",
                "disabled_boost": false,
                "dob": "",
                "eth_wallet": "0x6fffffdadae350ddd5a1777d5a1777a4f39f0317",
                "fb": false,
                "feature_flags": false,
                "featured_id": "725165605782560768",
                "founder": false,
                "gender": "private",
                "getAvatarSource": [MockFunction],
                "guid": "2",
                "icontime": "1523515420",
                "language": "en",
                "legacy_guid": false,
                "mature": "1",
                "mature_channel": "0",
                "merchant": Object {
                  "exclusive": Object {
                    "amount": "10",
                    "enabled": true,
                  },
                  "id": "acct_Dsdfjdlsaf34243",
                  "service": "stripe",
                },
                "monetized": "",
                "name": "Some User",
                "owner_guid": "0",
                "pinned_posts": Array [],
                "plus": true,
                "programs": Array [
                  "affiliate",
                ],
                "rating": "1",
                "rewards": true,
                "signup_method": false,
                "site_guid": false,
                "social_profiles": Array [],
                "spam": "0",
                "subscribed": false,
                "subscriber": true,
                "subtype": false,
                "time_created": "1468113204",
                "time_updated": false,
                "type": "user",
                "username": "someusermane",
                "verified": true,
                "website": "",
                "wire_rewards": Object {
                  "description": "",
                  "rewards": Object {
                    "money": Array [],
                    "points": Array [],
                  },
                },
              },
              "separators": Object {
                "highlight": [Function],
                "unhighlight": [Function],
                "updateProps": [Function],
              },
            }
          }
          navigation={
            Object {
              "navigate": [MockFunction],
              "state": Object {
                "params": Object {
                  "guid": 1,
                },
              },
            }
          }
          store={
            Object {
              "filter": "subscribers",
              "list": OffsetListStore {
                "entities": Array [
                  Object {
                    "access_id": "2",
                    "banned": "no",
                    "boostProPlus": false,
                    "boost_autorotate": true,
                    "boost_rating": "2",
                    "briefdescription": "",
                    "categories": Array [
                      "music",
                      "nature",
                      "news",
                      "politics",
                      "science",
                      "technology",
                      "education",
                      "art",
                      "health",
                    ],
                    "chat": true,
                    "city": "",
                    "container_guid": "0",
                    "deleted": "0",
                    "disabled_boost": false,
                    "dob": "",
                    "eth_wallet": "0x6fffffdadae350ddd5a1777d5a1777a4f39f0317",
                    "fb": false,
                    "feature_flags": false,
                    "featured_id": "725165605782560768",
                    "founder": false,
                    "gender": "private",
                    "getAvatarSource": [MockFunction],
                    "guid": "1",
                    "icontime": "1523515420",
                    "language": "en",
                    "legacy_guid": false,
                    "mature": "1",
                    "mature_channel": "0",
                    "merchant": Object {
                      "exclusive": Object {
                        "amount": "10",
                        "enabled": true,
                      },
                      "id": "acct_Dsdfjdlsaf34243",
                      "service": "stripe",
                    },
                    "monetized": "",
                    "name": "Some User",
                    "owner_guid": "0",
                    "pinned_posts": Array [],
                    "plus": true,
                    "programs": Array [
                      "affiliate",
                    ],
                    "rating": "1",
                    "rewards": true,
                    "signup_method": false,
                    "site_guid": false,
                    "social_profiles": Array [],
                    "spam": "0",
                    "subscribed": false,
                    "subscriber": true,
                    "subtype": false,
                    "time_created": "1468113204",
                    "time_updated": false,
                    "type": "user",
                    "username": "someusermane",
                    "verified": true,
                    "website": "",
                    "wire_rewards": Object {
                      "description": "",
                      "rewards": Object {
                        "money": Array [],
                        "points": Array [],
                      },
                    },
                  },
                  Object {
                    "access_id": "2",
                    "banned": "no",
                    "boostProPlus": false,
                    "boost_autorotate": true,
                    "boost_rating": "2",
                    "briefdescription": "",
                    "categories": Array [
                      "music",
                      "nature",
                      "news",
                      "politics",
                      "science",
                      "technology",
                      "education",
                      "art",
                      "health",
                    ],
                    "chat": true,
                    "city": "",
                    "container_guid": "0",
                    "deleted": "0",
                    "disabled_boost": false,
                    "dob": "",
                    "eth_wallet": "0x6fffffdadae350ddd5a1777d5a1777a4f39f0317",
                    "fb": false,
                    "feature_flags": false,
                    "featured_id": "725165605782560768",
                    "founder": false,
                    "gender": "private",
                    "getAvatarSource": [MockFunction],
                    "guid": "2",
                    "icontime": "1523515420",
                    "language": "en",
                    "legacy_guid": false,
                    "mature": "1",
                    "mature_channel": "0",
                    "merchant": Object {
                      "exclusive": Object {
                        "amount": "10",
                        "enabled": true,
                      },
                      "id": "acct_Dsdfjdlsaf34243",
                      "service": "stripe",
                    },
                    "monetized": "",
                    "name": "Some User",
                    "owner_guid": "0",
                    "pinned_posts": Array [],
                    "plus": true,
                    "programs": Array [
                      "affiliate",
                    ],
                    "rating": "1",
                    "rewards": true,
                    "signup_method": false,
                    "site_guid": false,
                    "social_profiles": Array [],
                    "spam": "0",
                    "subscribed": false,
                    "subscriber": true,
                    "subtype": false,
                    "time_created": "1468113204",
                    "time_updated": false,
                    "type": "user",
                    "username": "someusermane",
                    "verified": true,
                    "website": "",
                    "wire_rewards": Object {
                      "description": "",
                      "rewards": Object {
                        "money": Array [],
                        "points": Array [],
                      },
                    },
                  },
                  Object {
                    "access_id": "2",
                    "banned": "no",
                    "boostProPlus": false,
                    "boost_autorotate": true,
                    "boost_rating": "2",
                    "briefdescription": "",
                    "categories": Array [
                      "music",
                      "nature",
                      "news",
                      "politics",
                      "science",
                      "technology",
                      "education",
                      "art",
                      "health",
                    ],
                    "chat": true,
                    "city": "",
                    "container_guid": "0",
                    "deleted": "0",
                    "disabled_boost": false,
                    "dob": "",
                    "eth_wallet": "0x6fffffdadae350ddd5a1777d5a1777a4f39f0317",
                    "fb": false,
                    "feature_flags": false,
                    "featured_id": "725165605782560768",
                    "founder": false,
                    "gender": "private",
                    "getAvatarSource": [MockFunction],
                    "guid": "3",
                    "icontime": "1523515420",
                    "language": "en",
                    "legacy_guid": false,
                    "mature": "1",
                    "mature_channel": "0",
                    "merchant": Object {
                      "exclusive": Object {
                        "amount": "10",
                        "enabled": true,
                      },
                      "id": "acct_Dsdfjdlsaf34243",
                      "service": "stripe",
                    },
                    "monetized": "",
                    "name": "Some User",
                    "owner_guid": "0",
                    "pinned_posts": Array [],
                    "plus": true,
                    "programs": Array [
                      "affiliate",
                    ],
                    "rating": "1",
                    "rewards": true,
                    "signup_method": false,
                    "site_guid": false,
                    "social_profiles": Array [],
                    "spam": "0",
                    "subscribed": false,
                    "subscriber": true,
                    "subtype": false,
                    "time_created": "1468113204",
                    "time_updated": false,
                    "type": "user",
                    "username": "someusermane",
                    "verified": true,
                    "website": "",
                    "wire_rewards": Object {
                      "description": "",
                      "rewards": Object {
                        "money": Array [],
                        "points": Array [],
                      },
                    },
                  },
                ],
                "errorLoading": false,
                "loaded": true,
                "metadataService": null,
                "offset": "",
                "refreshing": false,
              },
              "loadList": [MockFunction],
              "refresh": [MockFunction],
              "reset": [MockFunction],
              "setFilter": [MockFunction],
              "setGuid": [MockFunction] {
                "calls": Array [
                  Array [
                    1,
                  ],
                ],
                "results": Array [
                  Object {
                    "type": "return",
                    "value": undefined,
                  },
                ],
              },
            }
          }
        />
      </View>
      <View
        onLayout={[Function]}
        style={null}
      >
        <DiscoveryUser
          entity={
            Object {
              "index": 2,
              "item": Object {
                "access_id": "2",
                "banned": "no",
                "boostProPlus": false,
                "boost_autorotate": true,
                "boost_rating": "2",
                "briefdescription": "",
                "categories": Array [
                  "music",
                  "nature",
                  "news",
                  "politics",
                  "science",
                  "technology",
                  "education",
                  "art",
                  "health",
                ],
                "chat": true,
                "city": "",
                "container_guid": "0",
                "deleted": "0",
                "disabled_boost": false,
                "dob": "",
                "eth_wallet": "0x6fffffdadae350ddd5a1777d5a1777a4f39f0317",
                "fb": false,
                "feature_flags": false,
                "featured_id": "725165605782560768",
                "founder": false,
                "gender": "private",
                "getAvatarSource": [MockFunction],
                "guid": "3",
                "icontime": "1523515420",
                "language": "en",
                "legacy_guid": false,
                "mature": "1",
                "mature_channel": "0",
                "merchant": Object {
                  "exclusive": Object {
                    "amount": "10",
                    "enabled": true,
                  },
                  "id": "acct_Dsdfjdlsaf34243",
                  "service": "stripe",
                },
                "monetized": "",
                "name": "Some User",
                "owner_guid": "0",
                "pinned_posts": Array [],
                "plus": true,
                "programs": Array [
                  "affiliate",
                ],
                "rating": "1",
                "rewards": true,
                "signup_method": false,
                "site_guid": false,
                "social_profiles": Array [],
                "spam": "0",
                "subscribed": false,
                "subscriber": true,
                "subtype": false,
                "time_created": "1468113204",
                "time_updated": false,
                "type": "user",
                "username": "someusermane",
                "verified": true,
                "website": "",
                "wire_rewards": Object {
                  "description": "",
                  "rewards": Object {
                    "money": Array [],
                    "points": Array [],
                  },
                },
              },
              "separators": Object {
                "highlight": [Function],
                "unhighlight": [Function],
                "updateProps": [Function],
              },
            }
          }
          navigation={
            Object {
              "navigate": [MockFunction],
              "state": Object {
                "params": Object {
                  "guid": 1,
                },
              },
            }
          }
          store={
            Object {
              "filter": "subscribers",
              "list": OffsetListStore {
                "entities": Array [
                  Object {
                    "access_id": "2",
                    "banned": "no",
                    "boostProPlus": false,
                    "boost_autorotate": true,
                    "boost_rating": "2",
                    "briefdescription": "",
                    "categories": Array [
                      "music",
                      "nature",
                      "news",
                      "politics",
                      "science",
                      "technology",
                      "education",
                      "art",
                      "health",
                    ],
                    "chat": true,
                    "city": "",
                    "container_guid": "0",
                    "deleted": "0",
                    "disabled_boost": false,
                    "dob": "",
                    "eth_wallet": "0x6fffffdadae350ddd5a1777d5a1777a4f39f0317",
                    "fb": false,
                    "feature_flags": false,
                    "featured_id": "725165605782560768",
                    "founder": false,
                    "gender": "private",
                    "getAvatarSource": [MockFunction],
                    "guid": "1",
                    "icontime": "1523515420",
                    "language": "en",
                    "legacy_guid": false,
                    "mature": "1",
                    "mature_channel": "0",
                    "merchant": Object {
                      "exclusive": Object {
                        "amount": "10",
                        "enabled": true,
                      },
                      "id": "acct_Dsdfjdlsaf34243",
                      "service": "stripe",
                    },
                    "monetized": "",
                    "name": "Some User",
                    "owner_guid": "0",
                    "pinned_posts": Array [],
                    "plus": true,
                    "programs": Array [
                      "affiliate",
                    ],
                    "rating": "1",
                    "rewards": true,
                    "signup_method": false,
                    "site_guid": false,
                    "social_profiles": Array [],
                    "spam": "0",
                    "subscribed": false,
                    "subscriber": true,
                    "subtype": false,
                    "time_created": "1468113204",
                    "time_updated": false,
                    "type": "user",
                    "username": "someusermane",
                    "verified": true,
                    "website": "",
                    "wire_rewards": Object {
                      "description": "",
                      "rewards": Object {
                        "money": Array [],
                        "points": Array [],
                      },
                    },
                  },
                  Object {
                    "access_id": "2",
                    "banned": "no",
                    "boostProPlus": false,
                    "boost_autorotate": true,
                    "boost_rating": "2",
                    "briefdescription": "",
                    "categories": Array [
                      "music",
                      "nature",
                      "news",
                      "politics",
                      "science",
                      "technology",
                      "education",
                      "art",
                      "health",
                    ],
                    "chat": true,
                    "city": "",
                    "container_guid": "0",
                    "deleted": "0",
                    "disabled_boost": false,
                    "dob": "",
                    "eth_wallet": "0x6fffffdadae350ddd5a1777d5a1777a4f39f0317",
                    "fb": false,
                    "feature_flags": false,
                    "featured_id": "725165605782560768",
                    "founder": false,
                    "gender": "private",
                    "getAvatarSource": [MockFunction],
                    "guid": "2",
                    "icontime": "1523515420",
                    "language": "en",
                    "legacy_guid": false,
                    "mature": "1",
                    "mature_channel": "0",
                    "merchant": Object {
                      "exclusive": Object {
                        "amount": "10",
                        "enabled": true,
                      },
                      "id": "acct_Dsdfjdlsaf34243",
                      "service": "stripe",
                    },
                    "monetized": "",
                    "name": "Some User",
                    "owner_guid": "0",
                    "pinned_posts": Array [],
                    "plus": true,
                    "programs": Array [
                      "affiliate",
                    ],
                    "rating": "1",
                    "rewards": true,
                    "signup_method": false,
                    "site_guid": false,
                    "social_profiles": Array [],
                    "spam": "0",
                    "subscribed": false,
                    "subscriber": true,
                    "subtype": false,
                    "time_created": "1468113204",
                    "time_updated": false,
                    "type": "user",
                    "username": "someusermane",
                    "verified": true,
                    "website": "",
                    "wire_rewards": Object {
                      "description": "",
                      "rewards": Object {
                        "money": Array [],
                        "points": Array [],
                      },
                    },
                  },
                  Object {
                    "access_id": "2",
                    "banned": "no",
                    "boostProPlus": false,
                    "boost_autorotate": true,
                    "boost_rating": "2",
                    "briefdescription": "",
                    "categories": Array [
                      "music",
                      "nature",
                      "news",
                      "politics",
                      "science",
                      "technology",
                      "education",
                      "art",
                      "health",
                    ],
                    "chat": true,
                    "city": "",
                    "container_guid": "0",
                    "deleted": "0",
                    "disabled_boost": false,
                    "dob": "",
                    "eth_wallet": "0x6fffffdadae350ddd5a1777d5a1777a4f39f0317",
                    "fb": false,
                    "feature_flags": false,
                    "featured_id": "725165605782560768",
                    "founder": false,
                    "gender": "private",
                    "getAvatarSource": [MockFunction],
                    "guid": "3",
                    "icontime": "1523515420",
                    "language": "en",
                    "legacy_guid": false,
                    "mature": "1",
                    "mature_channel": "0",
                    "merchant": Object {
                      "exclusive": Object {
                        "amount": "10",
                        "enabled": true,
                      },
                      "id": "acct_Dsdfjdlsaf34243",
                      "service": "stripe",
                    },
                    "monetized": "",
                    "name": "Some User",
                    "owner_guid": "0",
                    "pinned_posts": Array [],
                    "plus": true,
                    "programs": Array [
                      "affiliate",
                    ],
                    "rating": "1",
                    "rewards": true,
                    "signup_method": false,
                    "site_guid": false,
                    "social_profiles": Array [],
                    "spam": "0",
                    "subscribed": false,
                    "subscriber": true,
                    "subtype": false,
                    "time_created": "1468113204",
                    "time_updated": false,
                    "type": "user",
                    "username": "someusermane",
                    "verified": true,
                    "website": "",
                    "wire_rewards": Object {
                      "description": "",
                      "rewards": Object {
                        "money": Array [],
                        "points": Array [],
                      },
                    },
                  },
                ],
                "errorLoading": false,
                "loaded": true,
                "metadataService": null,
                "offset": "",
                "refreshing": false,
              },
              "loadList": [MockFunction],
              "refresh": [MockFunction],
              "reset": [MockFunction],
              "setFilter": [MockFunction],
              "setGuid": [MockFunction] {
                "calls": Array [
                  Array [
                    1,
                  ],
                ],
                "results": Array [
                  Object {
                    "type": "return",
                    "value": undefined,
                  },
                ],
              },
            }
          }
        />
      </View>
    </View>
  </RCTScrollView>
</View>
`;

exports[`channel subscribers component should render correctly without data 1`] = `
<View
  style={
    Object {
      "flex": 1,
    }
  }
>
  <View
    style={
      Object {
        "flexDirection": "row",
        "height": 35,
        "justifyContent": "center",
      }
    }
  >
    <View
      style={
        Array [
          Object {
            "flex": 1,
          },
          Object {
            "flexDirection": "row",
            "justifyContent": "center",
          },
        ]
      }
    >
      <View
        accessible={true}
        isTVSelectable={true}
        onResponderGrant={[Function]}
        onResponderMove={[Function]}
        onResponderRelease={[Function]}
        onResponderTerminate={[Function]}
        onResponderTerminationRequest={[Function]}
        onStartShouldSetResponder={[Function]}
        style={
          Array [
            Object {
              "alignItems": "center",
              "borderBottomWidth": 3,
              "borderColor": "#4690D6",
            },
            Object {
              "flex": 1,
              "justifyContent": "center",
            },
          ]
        }
      >
        <Text
          style={null}
        >
          Subscribers
        </Text>
      </View>
      <View
        accessible={true}
        isTVSelectable={true}
        onResponderGrant={[Function]}
        onResponderMove={[Function]}
        onResponderRelease={[Function]}
        onResponderTerminate={[Function]}
        onResponderTerminationRequest={[Function]}
        onStartShouldSetResponder={[Function]}
        style={
          Array [
            Object {
              "alignItems": "center",
            },
            Object {
              "flex": 1,
              "justifyContent": "center",
            },
          ]
        }
      >
        <Text
          style={null}
        >
          Subscriptions
        </Text>
      </View>
    </View>
  </View>
  <View
    style={
      Object {
        "alignItems": "center",
        "backgroundColor": "white",
        "flex": 1,
        "justifyContent": "center",
        "minHeight": 100,
      }
    }
  >
    <ActivityIndicator
      animating={true}
      color="#999999"
      hidesWhenStopped={true}
      size="large"
    />
  </View>
</View>
`;
